\relax 
\@writefile{toc}{\contentsline {section}{\numberline {1}}{}}
\@writefile{toc}{\contentsline {section}{\numberline {2}}{}}
\@writefile{toc}{\contentsline {subsection}{\numberline {a)}}{}}
\@writefile{toc}{\contentsline {subsection}{\numberline {b)}}{}}
\@writefile{toc}{\contentsline {section}{\numberline {3}}{}}
\@writefile{toc}{\contentsline {subsection}{\numberline {a)}}{}}
\@writefile{toc}{\contentsline {subsection}{\numberline {b)}}{}}
\@writefile{toc}{\contentsline {subsection}{\numberline {c)}}{}}
\@writefile{toc}{\contentsline {section}{\numberline {4}}{}}
\@writefile{toc}{\contentsline {section}{\numberline {5}}{}}
\@writefile{toc}{\contentsline {section}{\numberline {6}}{}}
\@writefile{toc}{\contentsline {subsection}{\numberline {a)}}{}}
\@writefile{toc}{\contentsline {subsection}{\numberline {b)}}{}}
\@writefile{toc}{\contentsline {subsection}{\numberline {c)}}{}}
\@writefile{toc}{\contentsline {section}{\numberline {7}}{}}
\@writefile{toc}{\contentsline {section}{\numberline {8}}{}}
\@writefile{toc}{\contentsline {subsection}{\numberline {a)}}{}}
\@writefile{toc}{\contentsline {subsection}{\numberline {b)}}{}}
\@writefile{toc}{\contentsline {subsection}{\numberline {c)}}{}}
\@writefile{toc}{\contentsline {subsection}{\numberline {d)}}{}}
\@writefile{toc}{\contentsline {subsection}{\numberline {e)}}{}}
\@writefile{toc}{\contentsline {section}{\numberline {9}}{}}
