\relax 
\@writefile{toc}{\contentsline {section}{\numberline {1}}{}}
\@writefile{toc}{\contentsline {subsection}{\numberline {1.a}}{}}
\@writefile{toc}{\contentsline {subsection}{\numberline {1.b}}{}}
\@writefile{toc}{\contentsline {section}{\numberline {2}}{}}
\@writefile{toc}{\contentsline {section}{\numberline {3}}{}}
\@writefile{toc}{\contentsline {section}{\numberline {4}}{}}
\@writefile{toc}{\contentsline {section}{\numberline {5}}{}}
\@writefile{toc}{\contentsline {section}{\numberline {6}}{}}
